%YAML 1.1
%TAG !u! tag:unity3d.com,2011:
--- !u!1 &1106961880380529945
GameObject:
  m_ObjectHideFlags: 0
  m_CorrespondingSourceObject: {fileID: 0}
  m_PrefabInstance: {fileID: 0}
  m_PrefabAsset: {fileID: 0}
  serializedVersion: 6
  m_Component:
  - component: {fileID: 3272091977965777131}
  - component: {fileID: 464107124903960282}
  - component: {fileID: 8744731231827714681}
  m_Layer: 6
  m_Name: Tree Grasslands 1
  m_TagString: Untagged
  m_Icon: {fileID: 0}
  m_NavMeshLayer: 0
  m_StaticEditorFlags: 0
  m_IsActive: 1
--- !u!4 &3272091977965777131
Transform:
  m_ObjectHideFlags: 0
  m_CorrespondingSourceObject: {fileID: 0}
  m_PrefabInstance: {fileID: 0}
  m_PrefabAsset: {fileID: 0}
  m_GameObject: {fileID: 1106961880380529945}
  m_LocalRotation: {x: 0, y: 0, z: 0, w: 1}
  m_LocalPosition: {x: 0, y: 0, z: 0}
  m_LocalScale: {x: 1, y: 1, z: 1}
  m_Children:
  - {fileID: 3729170171244440386}
  m_Father: {fileID: 0}
  m_RootOrder: 0
  m_LocalEulerAnglesHint: {x: 0, y: 0, z: 0}
--- !u!114 &464107124903960282
MonoBehaviour:
  m_ObjectHideFlags: 0
  m_CorrespondingSourceObject: {fileID: 0}
  m_PrefabInstance: {fileID: 0}
  m_PrefabAsset: {fileID: 0}
  m_GameObject: {fileID: 1106961880380529945}
  m_Enabled: 1
  m_EditorHideFlags: 0
  m_Script: {fileID: 11500000, guid: 6dfaa11e6113caf40a2ff28194822998, type: 3}
  m_Name: 
  m_EditorClassIdentifier: 
--- !u!135 &8744731231827714681
SphereCollider:
  m_ObjectHideFlags: 0
  m_CorrespondingSourceObject: {fileID: 0}
  m_PrefabInstance: {fileID: 0}
  m_PrefabAsset: {fileID: 0}
  m_GameObject: {fileID: 1106961880380529945}
  m_Material: {fileID: 0}
  m_IsTrigger: 1
  m_Enabled: 1
  serializedVersion: 2
  m_Radius: 1
  m_Center: {x: 0, y: 1, z: 0}
--- !u!1001 &3729170171244790772
PrefabInstance:
  m_ObjectHideFlags: 0
  serializedVersion: 2
  m_Modification:
    m_TransformParent: {fileID: 3272091977965777131}
    m_Modifications:
    - target: {fileID: 153954, guid: d935b49771d5ae744bbaa0973bb39f77, type: 3}
      propertyPath: m_Name
      value: tree-spruce
      objectReference: {fileID: 0}
    - target: {fileID: 436406, guid: d935b49771d5ae744bbaa0973bb39f77, type: 3}
      propertyPath: m_RootOrder
      value: 0
      objectReference: {fileID: 0}
    - target: {fileID: 436406, guid: d935b49771d5ae744bbaa0973bb39f77, type: 3}
      propertyPath: m_LocalPosition.x
      value: 0
      objectReference: {fileID: 0}
    - target: {fileID: 436406, guid: d935b49771d5ae744bbaa0973bb39f77, type: 3}
      propertyPath: m_LocalPosition.y
      value: 0
      objectReference: {fileID: 0}
    - target: {fileID: 436406, guid: d935b49771d5ae744bbaa0973bb39f77, type: 3}
      propertyPath: m_LocalPosition.z
      value: 0
      objectReference: {fileID: 0}
    - target: {fileID: 436406, guid: d935b49771d5ae744bbaa0973bb39f77, type: 3}
      propertyPath: m_LocalRotation.w
      value: 1
      objectReference: {fileID: 0}
    - target: {fileID: 436406, guid: d935b49771d5ae744bbaa0973bb39f77, type: 3}
      propertyPath: m_LocalRotation.x
      value: -0
      objectReference: {fileID: 0}
    - target: {fileID: 436406, guid: d935b49771d5ae744bbaa0973bb39f77, type: 3}
      propertyPath: m_LocalRotation.y
      value: -0
      objectReference: {fileID: 0}
    - target: {fileID: 436406, guid: d935b49771d5ae744bbaa0973bb39f77, type: 3}
      propertyPath: m_LocalRotation.z
      value: -0
      objectReference: {fileID: 0}
    - target: {fileID: 436406, guid: d935b49771d5ae744bbaa0973bb39f77, type: 3}
      propertyPath: m_LocalEulerAnglesHint.x
      value: 0
      objectReference: {fileID: 0}
    - target: {fileID: 436406, guid: d935b49771d5ae744bbaa0973bb39f77, type: 3}
      propertyPath: m_LocalEulerAnglesHint.y
      value: 0
      objectReference: {fileID: 0}
    - target: {fileID: 436406, guid: d935b49771d5ae744bbaa0973bb39f77, type: 3}
      propertyPath: m_LocalEulerAnglesHint.z
      value: 0
      objectReference: {fileID: 0}
    m_RemovedComponents: []
  m_SourcePrefab: {fileID: 100100000, guid: d935b49771d5ae744bbaa0973bb39f77, type: 3}
--- !u!4 &3729170171244440386 stripped
Transform:
  m_CorrespondingSourceObject: {fileID: 436406, guid: d935b49771d5ae744bbaa0973bb39f77, type: 3}
  m_PrefabInstance: {fileID: 3729170171244790772}
  m_PrefabAsset: {fileID: 0}
